{
    "count": 193,
    "next": "https://lldev.thespacedevs.com/2.2.0/launch/upcoming/?limit=10&mode=list&offset=10",
    "previous": null,
    "results": [
        {
            "id": "360fe91d-17ae-45b1-a636-340a27c1e6f8",
            "url": "https://lldev.thespacedevs.com/2.2.0/launch/360fe91d-17ae-45b1-a636-340a27c1e6f8/",
            "slug": "long-march-2cyz-1s-yaogan-32-02",
            "name": "Long March 2C/YZ-1S | Yaogan-32-02",
            "status": {
                "id": 2,
                "name": "To Be Determined",
                "abbrev": "TBD",
                "description": "Current date is a 'No Earlier Than' estimation based on unreliable or interpreted sources."
            },
            "last_updated": "2021-09-13T16:54:32Z",
            "net": "2021-09-30T00:00:00Z",
            "window_end": "2021-09-30T00:00:00Z",
            "window_start": "2021-09-30T00:00:00Z",
            "lsp_name": "China Aerospace Science and Technology Corporation",
            "mission": "Yaogan-32-02",
            "mission_type": "Government/Top Secret",
            "pad": "Launch Area 4 (SLS-2 / 603)",
            "location": "Jiuquan, People's Republic of China",
            "landing": null,
            "landing_success": null,
            "launcher": null,
            "orbit": "SSO",
            "image": "https://spacelaunchnow-prod-east.nyc3.digitaloceanspaces.com/media/launcher_images/long_march_2c__image_20210908193511.jpeg",
            "infographic": null
        },
        {
            "id": "bc321d24-1c15-47e1-a966-497f1ca9dff2",
            "url": "https://lldev.thespacedevs.com/2.2.0/launch/bc321d24-1c15-47e1-a966-497f1ca9dff2/",
            "slug": "epsilon-raise-2-others",
            "name": "Epsilon | RAISE-2 & Others",
            "status": {
                "id": 1,
                "name": "Go for Launch",
                "abbrev": "Go",
                "description": "Current T-0 confirmed by official or reliable sources."
            },
            "last_updated": "2021-08-20T07:06:41Z",
            "net": "2021-10-01T00:48:00Z",
            "window_end": "2021-10-01T00:59:00Z",
            "window_start": "2021-10-01T00:48:00Z",
            "lsp_name": "Japan Aerospace Exploration Agency",
            "mission": "RAISE-2 & Others",
            "mission_type": "Test Flight",
            "pad": "M-V Pad",
            "location": "Uchinoura Space Center, Japan",
            "landing": null,
            "landing_success": null,
            "launcher": null,
            "orbit": "LEO",
            "image": "https://spacelaunchnow-prod-east.nyc3.digitaloceanspaces.com/media/launcher_images/epsilon_image_20190224012335.jpeg",
            "infographic": null
        },
        {
            "id": "3637c9eb-25b4-4aaa-bb7e-2c3c53c46e56",
            "url": "https://lldev.thespacedevs.com/2.2.0/launch/3637c9eb-25b4-4aaa-bb7e-2c3c53c46e56/",
            "slug": "soyuz-21a-soyuz-ms-19",
            "name": "Soyuz 2.1a | Soyuz MS-19",
            "status": {
                "id": 8,
                "name": "To Be Confirmed",
                "abbrev": "TBC",
                "description": "Awaiting official confirmation - current date is known with some certainty."
            },
            "last_updated": "2021-09-23T12:10:54Z",
            "net": "2021-10-05T08:55:05Z",
            "window_end": "2021-10-05T08:55:05Z",
            "window_start": "2021-10-05T08:55:05Z",
            "lsp_name": "Russian Federal Space Agency (ROSCOSMOS)",
            "mission": "Soyuz MS-19",
            "mission_type": "Human Exploration",
            "pad": "31/6",
            "location": "Baikonur Cosmodrome, Republic of Kazakhstan",
            "landing": null,
            "landing_success": null,
            "launcher": null,
            "orbit": "LEO",
            "image": "https://spacelaunchnow-prod-east.nyc3.digitaloceanspaces.com/media/launcher_images/soyuz_2.1a_image_20201013143850.jpg",
            "infographic": null
        },
        {
            "id": "53d3f5c4-58ce-4aab-9f38-5d3dfa434194",
            "url": "https://lldev.thespacedevs.com/2.2.0/launch/53d3f5c4-58ce-4aab-9f38-5d3dfa434194/",
            "slug": "long-march-2fg-shenzhou-13",
            "name": "Long March 2F/G | Shenzhou 13",
            "status": {
                "id": 2,
                "name": "To Be Determined",
                "abbrev": "TBD",
                "description": "Current date is a 'No Earlier Than' estimation based on unreliable or interpreted sources."
            },
            "last_updated": "2021-09-12T19:14:43Z",
            "net": "2021-10-13T00:00:00Z",
            "window_end": "2021-10-13T00:00:00Z",
            "window_start": "2021-10-13T00:00:00Z",
            "lsp_name": "China Aerospace Science and Technology Corporation",
            "mission": "Shenzhou 13",
            "mission_type": "Human Exploration",
            "pad": "Launch Area 4 (SLS-1 / 921)",
            "location": "Jiuquan, People's Republic of China",
            "landing": null,
            "landing_success": null,
            "launcher": null,
            "orbit": "LEO",
            "image": "https://spacelaunchnow-prod-east.nyc3.digitaloceanspaces.com/media/launcher_images/long_march_2_image_20210908195835.jpeg",
            "infographic": null
        },
        {
            "id": "665d4c52-a441-416f-b634-3e9ae9f1d3ab",
            "url": "https://lldev.thespacedevs.com/2.2.0/launch/665d4c52-a441-416f-b634-3e9ae9f1d3ab/",
            "slug": "soyuz-21bfregat-m-oneweb-11",
            "name": "Soyuz 2.1b/Fregat-M | OneWeb 11",
            "status": {
                "id": 2,
                "name": "To Be Determined",
                "abbrev": "TBD",
                "description": "Current date is a 'No Earlier Than' estimation based on unreliable or interpreted sources."
            },
            "last_updated": "2021-09-12T19:15:17Z",
            "net": "2021-10-14T00:00:00Z",
            "window_end": "2021-10-14T00:00:00Z",
            "window_start": "2021-10-14T00:00:00Z",
            "lsp_name": "Arianespace",
            "mission": "OneWeb 11",
            "mission_type": "Communications",
            "pad": "Cosmodrome Site 1S",
            "location": "Vostochny Cosmodrome, Siberia, Russian Federation",
            "landing": null,
            "landing_success": null,
            "launcher": null,
            "orbit": "PO",
            "image": "https://spacelaunchnow-prod-east.nyc3.digitaloceanspaces.com/media/launch_images/soyuz25202.1b_image_20210520085941.jpeg",
            "infographic": null
        },
        {
            "id": "7e2d0fe7-6156-442d-be4e-cbac85f259e5",
            "url": "https://lldev.thespacedevs.com/2.2.0/launch/7e2d0fe7-6156-442d-be4e-cbac85f259e5/",
            "slug": "atlas-v-401-lucy",
            "name": "Atlas V 401 | Lucy",
            "status": {
                "id": 8,
                "name": "To Be Confirmed",
                "abbrev": "TBC",
                "description": "Awaiting official confirmation - current date is known with some certainty."
            },
            "last_updated": "2021-09-21T05:53:34Z",
            "net": "2021-10-16T09:34:00Z",
            "window_end": "2021-10-16T09:34:00Z",
            "window_start": "2021-10-16T09:34:00Z",
            "lsp_name": "United Launch Alliance",
            "mission": "Lucy",
            "mission_type": "Robotic Exploration",
            "pad": "Space Launch Complex 41",
            "location": "Cape Canaveral, FL, USA",
            "landing": null,
            "landing_success": null,
            "launcher": null,
            "orbit": "Helio-N/A",
            "image": "https://spacelaunchnow-prod-east.nyc3.digitaloceanspaces.com/media/launcher_images/atlas2520v2520401_image_20190224012334.jpeg",
            "infographic": null
        },
        {
            "id": "1f79ce8e-dabc-4287-bb59-2a40f567c4e4",
            "url": "https://lldev.thespacedevs.com/2.2.0/launch/1f79ce8e-dabc-4287-bb59-2a40f567c4e4/",
            "slug": "nuri-maiden-flight",
            "name": "Nuri | Maiden Flight",
            "status": {
                "id": 2,
                "name": "To Be Determined",
                "abbrev": "TBD",
                "description": "Current date is a 'No Earlier Than' estimation based on unreliable or interpreted sources."
            },
            "last_updated": "2021-08-12T07:03:21Z",
            "net": "2021-10-21T00:00:00Z",
            "window_end": "2021-10-21T00:00:00Z",
            "window_start": "2021-10-21T00:00:00Z",
            "lsp_name": "Korea Aerospace Research Institute",
            "mission": "Maiden Flight",
            "mission_type": "Test Flight",
            "pad": "LC-2",
            "location": "Naro Space Center, South Korea",
            "landing": null,
            "landing_success": null,
            "launcher": null,
            "orbit": "SSO",
            "image": "https://spacelaunchnow-prod-east.nyc3.digitaloceanspaces.com/media/launcher_images/nuri_image_20210812064852.jpg",
            "infographic": null
        },
        {
            "id": "7b412779-a9cd-442d-b067-1889a8f6b930",
            "url": "https://lldev.thespacedevs.com/2.2.0/launch/7b412779-a9cd-442d-b067-1889a8f6b930/",
            "slug": "ariane-5-eca-ses-17-syracuse-4a",
            "name": "Ariane 5 ECA | SES-17 & Syracuse 4A",
            "status": {
                "id": 2,
                "name": "To Be Determined",
                "abbrev": "TBD",
                "description": "Current date is a 'No Earlier Than' estimation based on unreliable or interpreted sources."
            },
            "last_updated": "2021-09-12T19:21:36Z",
            "net": "2021-10-22T00:15:00Z",
            "window_end": "2021-10-22T00:15:00Z",
            "window_start": "2021-10-22T00:15:00Z",
            "lsp_name": "Arianespace",
            "mission": "SES-17 & Syracuse 4A",
            "mission_type": "Communications",
            "pad": "Ariane Launch Area 3",
            "location": "Kourou, French Guiana",
            "landing": null,
            "landing_success": null,
            "launcher": null,
            "orbit": "GTO",
            "image": "https://spacelaunchnow-prod-east.nyc3.digitaloceanspaces.com/media/launcher_images/ariane252052520eca_image_20190224012333.jpeg",
            "infographic": null
        },
        {
            "id": "56e548c8-ff60-4cf5-bc60-d50a546a6a79",
            "url": "https://lldev.thespacedevs.com/2.2.0/launch/56e548c8-ff60-4cf5-bc60-d50a546a6a79/",
            "slug": "h-iia-202-qzs-1r",
            "name": "H-IIA 202 | QZS-1R",
            "status": {
                "id": 1,
                "name": "Go for Launch",
                "abbrev": "Go",
                "description": "Current T-0 confirmed by official or reliable sources."
            },
            "last_updated": "2021-09-10T06:43:16Z",
            "net": "2021-10-25T02:00:00Z",
            "window_end": "2021-10-25T03:00:00Z",
            "window_start": "2021-10-25T02:00:00Z",
            "lsp_name": "Mitsubishi Heavy Industries",
            "mission": "QZS-1R",
            "mission_type": "Navigation",
            "pad": "Yoshinobu Launch Complex",
            "location": "Tanegashima, Japan",
            "landing": null,
            "landing_success": null,
            "launcher": null,
            "orbit": "GSO",
            "image": "https://spacelaunchnow-prod-east.nyc3.digitaloceanspaces.com/media/launcher_images/h-iia2520202_image_20190222031201.jpeg",
            "infographic": null
        },
        {
            "id": "5175abf5-6cac-4b57-ae16-edabc138966a",
            "url": "https://lldev.thespacedevs.com/2.2.0/launch/5175abf5-6cac-4b57-ae16-edabc138966a/",
            "slug": "soyuz-21a-progress-ms-18-79p",
            "name": "Soyuz 2.1a | Progress MS-18 (79P)",
            "status": {
                "id": 2,
                "name": "To Be Determined",
                "abbrev": "TBD",
                "description": "Current date is a 'No Earlier Than' estimation based on unreliable or interpreted sources."
            },
            "last_updated": "2021-05-19T11:29:34Z",
            "net": "2021-10-28T00:00:00Z",
            "window_end": "2021-10-28T00:00:00Z",
            "window_start": "2021-10-28T00:00:00Z",
            "lsp_name": "Russian Federal Space Agency (ROSCOSMOS)",
            "mission": "Progress MS-18 (79P)",
            "mission_type": "Resupply",
            "pad": "31/6",
            "location": "Baikonur Cosmodrome, Republic of Kazakhstan",
            "landing": null,
            "landing_success": null,
            "launcher": null,
            "orbit": "LEO",
            "image": "https://spacelaunchnow-prod-east.nyc3.digitaloceanspaces.com/media/launcher_images/soyuz_2.1a_image_20201013143850.jpg",
            "infographic": null
        }
    ]
}
